%YAML 1.1
%TAG !u! tag:unity3d.com,2011:
--- !u!29 &1
OcclusionCullingSettings:
  m_ObjectHideFlags: 0
  serializedVersion: 2
  m_OcclusionBakeSettings:
    smallestOccluder: 5
    smallestHole: 0.25
    backfaceThreshold: 100
  m_SceneGUID: 00000000000000000000000000000000
  m_OcclusionCullingData: {fileID: 0}
--- !u!104 &2
RenderSettings:
  m_ObjectHideFlags: 0
  serializedVersion: 9
  m_Fog: 0
  m_FogColor: {r: 0, g: 0, b: 0, a: 1}
  m_FogMode: 1
  m_FogDensity: 0.01
  m_LinearFogStart: 0
  m_LinearFogEnd: 150
  m_AmbientSkyColor: {r: 0, g: 0, b: 0, a: 1}
  m_AmbientEquatorColor: {r: 0.114, g: 0.125, b: 0.133, a: 1}
  m_AmbientGroundColor: {r: 0.047, g: 0.043, b: 0.035, a: 1}
  m_AmbientIntensity: 1
  m_AmbientMode: 0
  m_SubtractiveShadowColor: {r: 0, g: 0, b: 0, a: 1}
  m_SkyboxMaterial: {fileID: 0}
  m_HaloStrength: 0.5
  m_FlareStrength: 1
  m_FlareFadeSpeed: 3
  m_HaloTexture: {fileID: 0}
  m_SpotCookie: {fileID: 10001, guid: 0000000000000000e000000000000000, type: 0}
  m_DefaultReflectionMode: 0
  m_DefaultReflectionResolution: 128
  m_ReflectionBounces: 1
  m_ReflectionIntensity: 0
  m_CustomReflection: {fileID: 0}
  m_Sun: {fileID: 0}
  m_IndirectSpecularColor: {r: 0, g: 0, b: 0, a: 1}
  m_UseRadianceAmbientProbe: 0
--- !u!157 &3
LightmapSettings:
  m_ObjectHideFlags: 0
  serializedVersion: 12
  m_GIWorkflowMode: 1
  m_GISettings:
    serializedVersion: 2
    m_BounceScale: 1
    m_IndirectOutputScale: 1
    m_AlbedoBoost: 1
    m_EnvironmentLightingMode: 0
    m_EnableBakedLightmaps: 1
    m_EnableRealtimeLightmaps: 0
  m_LightmapEditorSettings:
    serializedVersion: 12
    m_Resolution: 2
    m_BakeResolution: 40
    m_AtlasSize: 1024
    m_AO: 0
    m_AOMaxDistance: 1
    m_CompAOExponent: 1
    m_CompAOExponentDirect: 0
    m_ExtractAmbientOcclusion: 0
    m_Padding: 2
    m_LightmapParameters: {fileID: 0}
    m_LightmapsBakeMode: 1
    m_TextureCompression: 1
    m_FinalGather: 0
    m_FinalGatherFiltering: 1
    m_FinalGatherRayCount: 256
    m_ReflectionCompression: 2
    m_MixedBakeMode: 2
    m_BakeBackend: 1
    m_PVRSampling: 1
    m_PVRDirectSampleCount: 32
    m_PVRSampleCount: 500
    m_PVRBounces: 2
    m_PVREnvironmentSampleCount: 500
    m_PVREnvironmentReferencePointCount: 2048
    m_PVRFilteringMode: 2
    m_PVRDenoiserTypeDirect: 0
    m_PVRDenoiserTypeIndirect: 0
    m_PVRDenoiserTypeAO: 0
    m_PVRFilterTypeDirect: 0
    m_PVRFilterTypeIndirect: 0
    m_PVRFilterTypeAO: 0
    m_PVREnvironmentMIS: 0
    m_PVRCulling: 1
    m_PVRFilteringGaussRadiusDirect: 1
    m_PVRFilteringGaussRadiusIndirect: 5
    m_PVRFilteringGaussRadiusAO: 2
    m_PVRFilteringAtrousPositionSigmaDirect: 0.5
    m_PVRFilteringAtrousPositionSigmaIndirect: 2
    m_PVRFilteringAtrousPositionSigmaAO: 1
    m_ExportTrainingData: 0
    m_TrainingDataDestination: TrainingData
    m_LightProbeSampleCountMultiplier: 4
  m_LightingDataAsset: {fileID: 112000000, guid: 0565d35b469be764486f2c5fd675104b, type: 2}
  m_LightingSettings: {fileID: 4890085278179872738, guid: 3af82ae171f9dbc47a0849ec361c833b, type: 2}
--- !u!196 &4
NavMeshSettings:
  serializedVersion: 2
  m_ObjectHideFlags: 0
  m_BuildSettings:
    serializedVersion: 2
    agentTypeID: 0
    agentRadius: 0.5
    agentHeight: 2
    agentSlope: 45
    agentClimb: 0.4
    ledgeDropHeight: 0
    maxJumpAcrossDistance: 0
    minRegionArea: 2
    manualCellSize: 0
    cellSize: 0.16666667
    manualTileSize: 0
    tileSize: 256
    accuratePlacement: 0
    maxJobWorkers: 0
    preserveTilesOutsideBounds: 0
    debug:
      m_Flags: 0
  m_NavMeshData: {fileID: 0}
--- !u!1 &93493420
GameObject:
  m_ObjectHideFlags: 0
  m_CorrespondingSourceObject: {fileID: 0}
  m_PrefabInstance: {fileID: 0}
  m_PrefabAsset: {fileID: 0}
  serializedVersion: 6
  m_Component:
  - component: {fileID: 93493421}
  - component: {fileID: 93493422}
  m_Layer: 6
  m_Name: PostProcessVolume
  m_TagString: Untagged
  m_Icon: {fileID: 0}
  m_NavMeshLayer: 0
  m_StaticEditorFlags: 0
  m_IsActive: 1
--- !u!4 &93493421
Transform:
  m_ObjectHideFlags: 0
  m_CorrespondingSourceObject: {fileID: 0}
  m_PrefabInstance: {fileID: 0}
  m_PrefabAsset: {fileID: 0}
  m_GameObject: {fileID: 93493420}
  m_LocalRotation: {x: 0, y: 0, z: 0, w: 1}
  m_LocalPosition: {x: 0, y: 0, z: 0}
  m_LocalScale: {x: 1, y: 1, z: 1}
  m_Children: []
  m_Father: {fileID: 0}
  m_RootOrder: 6
  m_LocalEulerAnglesHint: {x: 0, y: 0, z: 0}
--- !u!114 &93493422
MonoBehaviour:
  m_ObjectHideFlags: 0
  m_CorrespondingSourceObject: {fileID: 0}
  m_PrefabInstance: {fileID: 0}
  m_PrefabAsset: {fileID: 0}
  m_GameObject: {fileID: 93493420}
  m_Enabled: 1
  m_EditorHideFlags: 0
  m_Script: {fileID: 11500000, guid: 8b9a305e18de0c04dbd257a21cd47087, type: 3}
  m_Name: 
  m_EditorClassIdentifier: 
  sharedProfile: {fileID: 11400000, guid: 29de3136b325e0b4c92629ee5eb9d2eb, type: 2}
  isGlobal: 1
  blendDistance: 0
  weight: 1
  priority: 0
--- !u!1001 &632325921
PrefabInstance:
  m_ObjectHideFlags: 0
  serializedVersion: 2
  m_Modification:
    m_TransformParent: {fileID: 0}
    m_Modifications:
    - target: {fileID: 3969742109650495577, guid: 7ce2ea46080d3a94780ec6839ed52554, type: 3}
      propertyPath: m_RootOrder
      value: 0
      objectReference: {fileID: 0}
    - target: {fileID: 3969742109650495577, guid: 7ce2ea46080d3a94780ec6839ed52554, type: 3}
      propertyPath: m_LocalPosition.x
      value: -108.4
      objectReference: {fileID: 0}
    - target: {fileID: 3969742109650495577, guid: 7ce2ea46080d3a94780ec6839ed52554, type: 3}
      propertyPath: m_LocalPosition.y
      value: -27.1
      objectReference: {fileID: 0}
    - target: {fileID: 3969742109650495577, guid: 7ce2ea46080d3a94780ec6839ed52554, type: 3}
      propertyPath: m_LocalPosition.z
      value: 438.3
      objectReference: {fileID: 0}
    - target: {fileID: 3969742109650495577, guid: 7ce2ea46080d3a94780ec6839ed52554, type: 3}
      propertyPath: m_LocalRotation.w
      value: 1
      objectReference: {fileID: 0}
    - target: {fileID: 3969742109650495577, guid: 7ce2ea46080d3a94780ec6839ed52554, type: 3}
      propertyPath: m_LocalRotation.x
      value: 0
      objectReference: {fileID: 0}
    - target: {fileID: 3969742109650495577, guid: 7ce2ea46080d3a94780ec6839ed52554, type: 3}
      propertyPath: m_LocalRotation.y
      value: 0
      objectReference: {fileID: 0}
    - target: {fileID: 3969742109650495577, guid: 7ce2ea46080d3a94780ec6839ed52554, type: 3}
      propertyPath: m_LocalRotation.z
      value: 0
      objectReference: {fileID: 0}
    - target: {fileID: 3969742109650495577, guid: 7ce2ea46080d3a94780ec6839ed52554, type: 3}
      propertyPath: m_LocalEulerAnglesHint.x
      value: 0
      objectReference: {fileID: 0}
    - target: {fileID: 3969742109650495577, guid: 7ce2ea46080d3a94780ec6839ed52554, type: 3}
      propertyPath: m_LocalEulerAnglesHint.y
      value: 0
      objectReference: {fileID: 0}
    - target: {fileID: 3969742109650495577, guid: 7ce2ea46080d3a94780ec6839ed52554, type: 3}
      propertyPath: m_LocalEulerAnglesHint.z
      value: 0
      objectReference: {fileID: 0}
    - target: {fileID: 4565489773694363943, guid: 7ce2ea46080d3a94780ec6839ed52554, type: 3}
      propertyPath: m_Name
      value: OrangeBigboy
      objectReference: {fileID: 0}
    - target: {fileID: 7430118733490485834, guid: 7ce2ea46080d3a94780ec6839ed52554, type: 3}
      propertyPath: model
      value: 
      objectReference: {fileID: 919132149155446097, guid: 5aae944e9d8ca524f9a647dc4c71ef62, type: 3}
    - target: {fileID: 7430118733490485834, guid: 7ce2ea46080d3a94780ec6839ed52554, type: 3}
      propertyPath: killPoints
      value: 20
      objectReference: {fileID: 0}
    - target: {fileID: 7430118733490485834, guid: 7ce2ea46080d3a94780ec6839ed52554, type: 3}
      propertyPath: startDelay
      value: 240
      objectReference: {fileID: 0}
    - target: {fileID: 7430118733490485834, guid: 7ce2ea46080d3a94780ec6839ed52554, type: 3}
      propertyPath: invaderPrefab
      value: 
      objectReference: {fileID: 1443808072648727875, guid: ebfbff028499bd84694463ac26ac9c2e, type: 3}
    - target: {fileID: 7430118733490485834, guid: 7ce2ea46080d3a94780ec6839ed52554, type: 3}
      propertyPath: spawnInterval
      value: 20
      objectReference: {fileID: 0}
    - target: {fileID: 7430118733490485834, guid: 7ce2ea46080d3a94780ec6839ed52554, type: 3}
      propertyPath: smallboyPrefab
      value: 
      objectReference: {fileID: 3290537482987725160, guid: 16fa316406acd90408e5ef665622c51f, type: 3}
    m_RemovedComponents: []
  m_SourcePrefab: {fileID: 100100000, guid: 7ce2ea46080d3a94780ec6839ed52554, type: 3}
--- !u!1 &901447021
GameObject:
  m_ObjectHideFlags: 0
  m_CorrespondingSourceObject: {fileID: 0}
  m_PrefabInstance: {fileID: 0}
  m_PrefabAsset: {fileID: 0}
  serializedVersion: 6
  m_Component:
  - component: {fileID: 901447023}
  - component: {fileID: 901447022}
  m_Layer: 0
  m_Name: Point Light
  m_TagString: Untagged
  m_Icon: {fileID: 0}
  m_NavMeshLayer: 0
  m_StaticEditorFlags: 0
  m_IsActive: 1
--- !u!108 &901447022
Light:
  m_ObjectHideFlags: 0
  m_CorrespondingSourceObject: {fileID: 0}
  m_PrefabInstance: {fileID: 0}
  m_PrefabAsset: {fileID: 0}
  m_GameObject: {fileID: 901447021}
  m_Enabled: 1
  serializedVersion: 10
  m_Type: 2
  m_Shape: 0
  m_Color: {r: 1, g: 0.74494755, b: 0.48584908, a: 1}
  m_Intensity: 10
  m_Range: 673.6803
  m_SpotAngle: 30
  m_InnerSpotAngle: 21.80208
  m_CookieSize: 10
  m_Shadows:
    m_Type: 0
    m_Resolution: -1
    m_CustomResolution: -1
    m_Strength: 1
    m_Bias: 0.05
    m_NormalBias: 0.4
    m_NearPlane: 0.2
    m_CullingMatrixOverride:
      e00: 1
      e01: 0
      e02: 0
      e03: 0
      e10: 0
      e11: 1
      e12: 0
      e13: 0
      e20: 0
      e21: 0
      e22: 1
      e23: 0
      e30: 0
      e31: 0
      e32: 0
      e33: 1
    m_UseCullingMatrixOverride: 0
  m_Cookie: {fileID: 0}
  m_DrawHalo: 0
  m_Flare: {fileID: 0}
  m_RenderMode: 0
  m_CullingMask:
    serializedVersion: 2
    m_Bits: 4294967295
  m_RenderingLayerMask: 1
  m_Lightmapping: 4
  m_LightShadowCasterMode: 0
  m_AreaSize: {x: 1, y: 1}
  m_BounceIntensity: 1
  m_ColorTemperature: 6570
  m_UseColorTemperature: 0
  m_BoundingSphereOverride: {x: 0, y: 0, z: 0, w: 0}
  m_UseBoundingSphereOverride: 0
  m_UseViewFrustumForShadowCasterCull: 1
  m_ShadowRadius: 0
  m_ShadowAngle: 0
--- !u!4 &901447023
Transform:
  m_ObjectHideFlags: 0
  m_CorrespondingSourceObject: {fileID: 0}
  m_PrefabInstance: {fileID: 0}
  m_PrefabAsset: {fileID: 0}
  m_GameObject: {fileID: 901447021}
  m_LocalRotation: {x: -0, y: -0, z: -0, w: 1}
  m_LocalPosition: {x: 0, y: 0, z: 0}
  m_LocalScale: {x: 1, y: 1, z: 1}
  m_Children: []
  m_Father: {fileID: 1851259447}
  m_RootOrder: 1
  m_LocalEulerAnglesHint: {x: 0, y: 0, z: 0}
--- !u!1001 &963627466
PrefabInstance:
  m_ObjectHideFlags: 0
  serializedVersion: 2
  m_Modification:
    m_TransformParent: {fileID: 0}
    m_Modifications:
    - target: {fileID: 3969742109650495577, guid: 7ce2ea46080d3a94780ec6839ed52554, type: 3}
      propertyPath: m_RootOrder
      value: 2
      objectReference: {fileID: 0}
    - target: {fileID: 3969742109650495577, guid: 7ce2ea46080d3a94780ec6839ed52554, type: 3}
      propertyPath: m_LocalPosition.x
      value: -0.9
      objectReference: {fileID: 0}
    - target: {fileID: 3969742109650495577, guid: 7ce2ea46080d3a94780ec6839ed52554, type: 3}
      propertyPath: m_LocalPosition.y
      value: 27.4
      objectReference: {fileID: 0}
    - target: {fileID: 3969742109650495577, guid: 7ce2ea46080d3a94780ec6839ed52554, type: 3}
      propertyPath: m_LocalPosition.z
      value: 438.3
      objectReference: {fileID: 0}
    - target: {fileID: 3969742109650495577, guid: 7ce2ea46080d3a94780ec6839ed52554, type: 3}
      propertyPath: m_LocalRotation.w
      value: 1
      objectReference: {fileID: 0}
    - target: {fileID: 3969742109650495577, guid: 7ce2ea46080d3a94780ec6839ed52554, type: 3}
      propertyPath: m_LocalRotation.x
      value: 0
      objectReference: {fileID: 0}
    - target: {fileID: 3969742109650495577, guid: 7ce2ea46080d3a94780ec6839ed52554, type: 3}
      propertyPath: m_LocalRotation.y
      value: 0
      objectReference: {fileID: 0}
    - target: {fileID: 3969742109650495577, guid: 7ce2ea46080d3a94780ec6839ed52554, type: 3}
      propertyPath: m_LocalRotation.z
      value: 0
      objectReference: {fileID: 0}
    - target: {fileID: 3969742109650495577, guid: 7ce2ea46080d3a94780ec6839ed52554, type: 3}
      propertyPath: m_LocalEulerAnglesHint.x
      value: 0
      objectReference: {fileID: 0}
    - target: {fileID: 3969742109650495577, guid: 7ce2ea46080d3a94780ec6839ed52554, type: 3}
      propertyPath: m_LocalEulerAnglesHint.y
      value: 0
      objectReference: {fileID: 0}
    - target: {fileID: 3969742109650495577, guid: 7ce2ea46080d3a94780ec6839ed52554, type: 3}
      propertyPath: m_LocalEulerAnglesHint.z
      value: 0
      objectReference: {fileID: 0}
    - target: {fileID: 4565489773694363943, guid: 7ce2ea46080d3a94780ec6839ed52554, type: 3}
      propertyPath: m_Name
      value: GreenBigboy
      objectReference: {fileID: 0}
    - target: {fileID: 7430118733490485834, guid: 7ce2ea46080d3a94780ec6839ed52554, type: 3}
      propertyPath: model
      value: 
      objectReference: {fileID: 919132149155446097, guid: 05838db58e985284a9229784f7f0df01, type: 3}
    - target: {fileID: 7430118733490485834, guid: 7ce2ea46080d3a94780ec6839ed52554, type: 3}
      propertyPath: killPoints
      value: 5
      objectReference: {fileID: 0}
    - target: {fileID: 7430118733490485834, guid: 7ce2ea46080d3a94780ec6839ed52554, type: 3}
      propertyPath: invaderPrefab
      value: 
      objectReference: {fileID: 1443808072648727875, guid: ebfbff028499bd84694463ac26ac9c2e, type: 3}
    - target: {fileID: 7430118733490485834, guid: 7ce2ea46080d3a94780ec6839ed52554, type: 3}
      propertyPath: spawnInterval
      value: 5
      objectReference: {fileID: 0}
    - target: {fileID: 7430118733490485834, guid: 7ce2ea46080d3a94780ec6839ed52554, type: 3}
      propertyPath: smallboyPrefab
      value: 
      objectReference: {fileID: 3290537482987725160, guid: 16fa316406acd90408e5ef665622c51f, type: 3}
    m_RemovedComponents: []
  m_SourcePrefab: {fileID: 100100000, guid: 7ce2ea46080d3a94780ec6839ed52554, type: 3}
--- !u!1001 &990169552
PrefabInstance:
  m_ObjectHideFlags: 0
  serializedVersion: 2
  m_Modification:
    m_TransformParent: {fileID: 0}
    m_Modifications:
    - target: {fileID: 3969742109650495577, guid: 7ce2ea46080d3a94780ec6839ed52554, type: 3}
      propertyPath: m_RootOrder
      value: 1
      objectReference: {fileID: 0}
    - target: {fileID: 3969742109650495577, guid: 7ce2ea46080d3a94780ec6839ed52554, type: 3}
      propertyPath: m_LocalPosition.x
      value: -73.6
      objectReference: {fileID: 0}
    - target: {fileID: 3969742109650495577, guid: 7ce2ea46080d3a94780ec6839ed52554, type: 3}
      propertyPath: m_LocalPosition.y
      value: 11.3
      objectReference: {fileID: 0}
    - target: {fileID: 3969742109650495577, guid: 7ce2ea46080d3a94780ec6839ed52554, type: 3}
      propertyPath: m_LocalPosition.z
      value: 438.3
      objectReference: {fileID: 0}
    - target: {fileID: 3969742109650495577, guid: 7ce2ea46080d3a94780ec6839ed52554, type: 3}
      propertyPath: m_LocalRotation.w
      value: 1
      objectReference: {fileID: 0}
    - target: {fileID: 3969742109650495577, guid: 7ce2ea46080d3a94780ec6839ed52554, type: 3}
      propertyPath: m_LocalRotation.x
      value: 0
      objectReference: {fileID: 0}
    - target: {fileID: 3969742109650495577, guid: 7ce2ea46080d3a94780ec6839ed52554, type: 3}
      propertyPath: m_LocalRotation.y
      value: 0
      objectReference: {fileID: 0}
    - target: {fileID: 3969742109650495577, guid: 7ce2ea46080d3a94780ec6839ed52554, type: 3}
      propertyPath: m_LocalRotation.z
      value: 0
      objectReference: {fileID: 0}
    - target: {fileID: 3969742109650495577, guid: 7ce2ea46080d3a94780ec6839ed52554, type: 3}
      propertyPath: m_LocalEulerAnglesHint.x
      value: 0
      objectReference: {fileID: 0}
    - target: {fileID: 3969742109650495577, guid: 7ce2ea46080d3a94780ec6839ed52554, type: 3}
      propertyPath: m_LocalEulerAnglesHint.y
      value: 0
      objectReference: {fileID: 0}
    - target: {fileID: 3969742109650495577, guid: 7ce2ea46080d3a94780ec6839ed52554, type: 3}
      propertyPath: m_LocalEulerAnglesHint.z
      value: 0
      objectReference: {fileID: 0}
    - target: {fileID: 4565489773694363943, guid: 7ce2ea46080d3a94780ec6839ed52554, type: 3}
      propertyPath: m_Name
      value: YellowBigboy
      objectReference: {fileID: 0}
    - target: {fileID: 7430118733490485834, guid: 7ce2ea46080d3a94780ec6839ed52554, type: 3}
      propertyPath: model
      value: 
      objectReference: {fileID: 919132149155446097, guid: 8e88ffa60401fa548839d4815fb37d47, type: 3}
    - target: {fileID: 7430118733490485834, guid: 7ce2ea46080d3a94780ec6839ed52554, type: 3}
      propertyPath: startDelay
      value: 60
      objectReference: {fileID: 0}
    - target: {fileID: 7430118733490485834, guid: 7ce2ea46080d3a94780ec6839ed52554, type: 3}
      propertyPath: invaderPrefab
      value: 
      objectReference: {fileID: 1443808072648727875, guid: ebfbff028499bd84694463ac26ac9c2e, type: 3}
    - target: {fileID: 7430118733490485834, guid: 7ce2ea46080d3a94780ec6839ed52554, type: 3}
      propertyPath: spawnInterval
      value: 10
      objectReference: {fileID: 0}
    - target: {fileID: 7430118733490485834, guid: 7ce2ea46080d3a94780ec6839ed52554, type: 3}
      propertyPath: smallboyPrefab
      value: 
      objectReference: {fileID: 3290537482987725160, guid: 16fa316406acd90408e5ef665622c51f, type: 3}
    m_RemovedComponents: []
  m_SourcePrefab: {fileID: 100100000, guid: 7ce2ea46080d3a94780ec6839ed52554, type: 3}
--- !u!1 &1851259446
GameObject:
  m_ObjectHideFlags: 0
  m_CorrespondingSourceObject: {fileID: 0}
  m_PrefabInstance: {fileID: 0}
  m_PrefabAsset: {fileID: 0}
  serializedVersion: 6
  m_Component:
  - component: {fileID: 1851259447}
  - component: {fileID: 1851259448}
  m_Layer: 0
  m_Name: Sun
  m_TagString: Untagged
  m_Icon: {fileID: 0}
  m_NavMeshLayer: 0
  m_StaticEditorFlags: 0
  m_IsActive: 1
--- !u!4 &1851259447
Transform:
  m_ObjectHideFlags: 0
  m_CorrespondingSourceObject: {fileID: 0}
  m_PrefabInstance: {fileID: 0}
  m_PrefabAsset: {fileID: 0}
  m_GameObject: {fileID: 1851259446}
  m_LocalRotation: {x: 0, y: 0, z: 0, w: 1}
  m_LocalPosition: {x: 0, y: -102.7, z: 481.3}
  m_LocalScale: {x: 1, y: 1, z: 1}
  m_Children:
  - {fileID: 1987237572}
  - {fileID: 901447023}
  m_Father: {fileID: 0}
  m_RootOrder: 5
  m_LocalEulerAnglesHint: {x: 0, y: 0, z: 0}
--- !u!114 &1851259448
MonoBehaviour:
  m_ObjectHideFlags: 0
  m_CorrespondingSourceObject: {fileID: 0}
  m_PrefabInstance: {fileID: 0}
  m_PrefabAsset: {fileID: 0}
  m_GameObject: {fileID: 1851259446}
  m_Enabled: 1
  m_EditorHideFlags: 0
  m_Script: {fileID: 11500000, guid: 3c91d0e0d3b71054b9e7cee5ccddee7e, type: 3}
  m_Name: 
  m_EditorClassIdentifier: 
--- !u!1 &1987237571
GameObject:
  m_ObjectHideFlags: 0
  m_CorrespondingSourceObject: {fileID: 0}
  m_PrefabInstance: {fileID: 0}
  m_PrefabAsset: {fileID: 0}
  serializedVersion: 6
  m_Component:
  - component: {fileID: 1987237572}
  - component: {fileID: 1987237575}
  - component: {fileID: 1987237574}
  - component: {fileID: 1987237573}
  m_Layer: 0
  m_Name: Sphere
  m_TagString: Untagged
  m_Icon: {fileID: 0}
  m_NavMeshLayer: 0
  m_StaticEditorFlags: 0
  m_IsActive: 1
--- !u!4 &1987237572
Transform:
  m_ObjectHideFlags: 0
  m_CorrespondingSourceObject: {fileID: 0}
  m_PrefabInstance: {fileID: 0}
  m_PrefabAsset: {fileID: 0}
  m_GameObject: {fileID: 1987237571}
  m_LocalRotation: {x: 0.41398993, y: -0, z: -0, w: 0.9102815}
  m_LocalPosition: {x: 0, y: 0, z: 0}
  m_LocalScale: {x: 200, y: 200, z: 200}
  m_Children: []
  m_Father: {fileID: 1851259447}
  m_RootOrder: 0
  m_LocalEulerAnglesHint: {x: 48.911, y: 0, z: 0}
--- !u!135 &1987237573
SphereCollider:
  m_ObjectHideFlags: 0
  m_CorrespondingSourceObject: {fileID: 0}
  m_PrefabInstance: {fileID: 0}
  m_PrefabAsset: {fileID: 0}
  m_GameObject: {fileID: 1987237571}
  m_Material: {fileID: 0}
  m_IsTrigger: 0
  m_Enabled: 1
  serializedVersion: 2
  m_Radius: 0.5
  m_Center: {x: 0, y: 0, z: 0}
--- !u!23 &1987237574
MeshRenderer:
  m_ObjectHideFlags: 0
  m_CorrespondingSourceObject: {fileID: 0}
  m_PrefabInstance: {fileID: 0}
  m_PrefabAsset: {fileID: 0}
  m_GameObject: {fileID: 1987237571}
  m_Enabled: 1
  m_CastShadows: 0
  m_ReceiveShadows: 0
  m_DynamicOccludee: 1
  m_MotionVectors: 1
  m_LightProbeUsage: 1
  m_ReflectionProbeUsage: 1
  m_RayTracingMode: 2
  m_RayTraceProcedural: 0
  m_RenderingLayerMask: 1
  m_RendererPriority: 0
  m_Materials:
  - {fileID: 2100000, guid: 311d1a9881ac00c40850a1bda16ce120, type: 2}
  m_StaticBatchInfo:
    firstSubMesh: 0
    subMeshCount: 0
  m_StaticBatchRoot: {fileID: 0}
  m_ProbeAnchor: {fileID: 0}
  m_LightProbeVolumeOverride: {fileID: 0}
  m_ScaleInLightmap: 1
  m_ReceiveGI: 1
  m_PreserveUVs: 0
  m_IgnoreNormalsForChartDetection: 0
  m_ImportantGI: 0
  m_StitchLightmapSeams: 1
  m_SelectedEditorRenderState: 3
  m_MinimumChartSize: 4
  m_AutoUVMaxDistance: 0.5
  m_AutoUVMaxAngle: 89
  m_LightmapParameters: {fileID: 0}
  m_SortingLayerID: 0
  m_SortingLayer: 0
  m_SortingOrder: 0
  m_AdditionalVertexStreams: {fileID: 0}
--- !u!33 &1987237575
MeshFilter:
  m_ObjectHideFlags: 0
  m_CorrespondingSourceObject: {fileID: 0}
  m_PrefabInstance: {fileID: 0}
  m_PrefabAsset: {fileID: 0}
  m_GameObject: {fileID: 1987237571}
  m_Mesh: {fileID: 10207, guid: 0000000000000000e000000000000000, type: 0}
--- !u!1001 &2130011973
PrefabInstance:
  m_ObjectHideFlags: 0
  serializedVersion: 2
  m_Modification:
    m_TransformParent: {fileID: 0}
    m_Modifications:
    - target: {fileID: 3969742109650495577, guid: 7ce2ea46080d3a94780ec6839ed52554, type: 3}
      propertyPath: m_RootOrder
      value: 4
      objectReference: {fileID: 0}
    - target: {fileID: 3969742109650495577, guid: 7ce2ea46080d3a94780ec6839ed52554, type: 3}
      propertyPath: m_LocalPosition.x
      value: 108.6
      objectReference: {fileID: 0}
    - target: {fileID: 3969742109650495577, guid: 7ce2ea46080d3a94780ec6839ed52554, type: 3}
      propertyPath: m_LocalPosition.y
      value: -18
      objectReference: {fileID: 0}
    - target: {fileID: 3969742109650495577, guid: 7ce2ea46080d3a94780ec6839ed52554, type: 3}
      propertyPath: m_LocalPosition.z
      value: 438.3
      objectReference: {fileID: 0}
    - target: {fileID: 3969742109650495577, guid: 7ce2ea46080d3a94780ec6839ed52554, type: 3}
      propertyPath: m_LocalRotation.w
      value: 1
      objectReference: {fileID: 0}
    - target: {fileID: 3969742109650495577, guid: 7ce2ea46080d3a94780ec6839ed52554, type: 3}
      propertyPath: m_LocalRotation.x
      value: 0
      objectReference: {fileID: 0}
    - target: {fileID: 3969742109650495577, guid: 7ce2ea46080d3a94780ec6839ed52554, type: 3}
      propertyPath: m_LocalRotation.y
      value: 0
      objectReference: {fileID: 0}
    - target: {fileID: 3969742109650495577, guid: 7ce2ea46080d3a94780ec6839ed52554, type: 3}
      propertyPath: m_LocalRotation.z
      value: 0
      objectReference: {fileID: 0}
    - target: {fileID: 3969742109650495577, guid: 7ce2ea46080d3a94780ec6839ed52554, type: 3}
      propertyPath: m_LocalEulerAnglesHint.x
      value: 0
      objectReference: {fileID: 0}
    - target: {fileID: 3969742109650495577, guid: 7ce2ea46080d3a94780ec6839ed52554, type: 3}
      propertyPath: m_LocalEulerAnglesHint.y
      value: 0
      objectReference: {fileID: 0}
    - target: {fileID: 3969742109650495577, guid: 7ce2ea46080d3a94780ec6839ed52554, type: 3}
      propertyPath: m_LocalEulerAnglesHint.z
      value: 0
      objectReference: {fileID: 0}
    - target: {fileID: 4565489773694363943, guid: 7ce2ea46080d3a94780ec6839ed52554, type: 3}
      propertyPath: m_Name
      value: MagentaBigboy
      objectReference: {fileID: 0}
    - target: {fileID: 7430118733490485834, guid: 7ce2ea46080d3a94780ec6839ed52554, type: 3}
      propertyPath: model
      value: 
      objectReference: {fileID: 919132149155446097, guid: c744cb9fb6a94f94dbf357839303a27a, type: 3}
    - target: {fileID: 7430118733490485834, guid: 7ce2ea46080d3a94780ec6839ed52554, type: 3}
      propertyPath: killPoints
      value: 25
      objectReference: {fileID: 0}
    - target: {fileID: 7430118733490485834, guid: 7ce2ea46080d3a94780ec6839ed52554, type: 3}
      propertyPath: startDelay
      value: 480
      objectReference: {fileID: 0}
    - target: {fileID: 7430118733490485834, guid: 7ce2ea46080d3a94780ec6839ed52554, type: 3}
      propertyPath: invaderPrefab
      value: 
      objectReference: {fileID: 1443808072648727875, guid: ebfbff028499bd84694463ac26ac9c2e, type: 3}
    - target: {fileID: 7430118733490485834, guid: 7ce2ea46080d3a94780ec6839ed52554, type: 3}
      propertyPath: spawnInterval
      value: 20
      objectReference: {fileID: 0}
    - target: {fileID: 7430118733490485834, guid: 7ce2ea46080d3a94780ec6839ed52554, type: 3}
      propertyPath: smallboyPrefab
      value: 
      objectReference: {fileID: 3290537482987725160, guid: 16fa316406acd90408e5ef665622c51f, type: 3}
    m_RemovedComponents: []
  m_SourcePrefab: {fileID: 100100000, guid: 7ce2ea46080d3a94780ec6839ed52554, type: 3}
--- !u!1001 &676995581929729647
PrefabInstance:
  m_ObjectHideFlags: 0
  serializedVersion: 2
  m_Modification:
    m_TransformParent: {fileID: 0}
    m_Modifications:
    - target: {fileID: 406522661612522886, guid: 3e96316a101b7f24e89570acc1570dfd, type: 3}
      propertyPath: m_Name
      value: Spaceship
      objectReference: {fileID: 0}
    - target: {fileID: 1076240019313645372, guid: 3e96316a101b7f24e89570acc1570dfd, type: 3}
      propertyPath: m_RootOrder
      value: 7
      objectReference: {fileID: 0}
    - target: {fileID: 1076240019313645372, guid: 3e96316a101b7f24e89570acc1570dfd, type: 3}
      propertyPath: m_LocalPosition.x
      value: 0
      objectReference: {fileID: 0}
    - target: {fileID: 1076240019313645372, guid: 3e96316a101b7f24e89570acc1570dfd, type: 3}
      propertyPath: m_LocalPosition.y
      value: 0
      objectReference: {fileID: 0}
    - target: {fileID: 1076240019313645372, guid: 3e96316a101b7f24e89570acc1570dfd, type: 3}
      propertyPath: m_LocalPosition.z
      value: -30
      objectReference: {fileID: 0}
    - target: {fileID: 1076240019313645372, guid: 3e96316a101b7f24e89570acc1570dfd, type: 3}
      propertyPath: m_LocalRotation.w
      value: 1
      objectReference: {fileID: 0}
    - target: {fileID: 1076240019313645372, guid: 3e96316a101b7f24e89570acc1570dfd, type: 3}
      propertyPath: m_LocalRotation.x
      value: 0
      objectReference: {fileID: 0}
    - target: {fileID: 1076240019313645372, guid: 3e96316a101b7f24e89570acc1570dfd, type: 3}
      propertyPath: m_LocalRotation.y
      value: -0
      objectReference: {fileID: 0}
    - target: {fileID: 1076240019313645372, guid: 3e96316a101b7f24e89570acc1570dfd, type: 3}
      propertyPath: m_LocalRotation.z
      value: -0
      objectReference: {fileID: 0}
    - target: {fileID: 1076240019313645372, guid: 3e96316a101b7f24e89570acc1570dfd, type: 3}
      propertyPath: m_LocalEulerAnglesHint.x
      value: 0
      objectReference: {fileID: 0}
    - target: {fileID: 1076240019313645372, guid: 3e96316a101b7f24e89570acc1570dfd, type: 3}
      propertyPath: m_LocalEulerAnglesHint.y
      value: 0
      objectReference: {fileID: 0}
    - target: {fileID: 1076240019313645372, guid: 3e96316a101b7f24e89570acc1570dfd, type: 3}
      propertyPath: m_LocalEulerAnglesHint.z
      value: 0
      objectReference: {fileID: 0}
    m_RemovedComponents: []
  m_SourcePrefab: {fileID: 100100000, guid: 3e96316a101b7f24e89570acc1570dfd, type: 3}
--- !u!1001 &7798092546689555986
PrefabInstance:
  m_ObjectHideFlags: 0
  serializedVersion: 2
  m_Modification:
    m_TransformParent: {fileID: 0}
    m_Modifications:
    - target: {fileID: 3969742109650495577, guid: 7ce2ea46080d3a94780ec6839ed52554, type: 3}
      propertyPath: m_RootOrder
      value: 3
      objectReference: {fileID: 0}
    - target: {fileID: 3969742109650495577, guid: 7ce2ea46080d3a94780ec6839ed52554, type: 3}
      propertyPath: m_LocalPosition.x
      value: 71.7
      objectReference: {fileID: 0}
    - target: {fileID: 3969742109650495577, guid: 7ce2ea46080d3a94780ec6839ed52554, type: 3}
      propertyPath: m_LocalPosition.y
      value: 14.6
      objectReference: {fileID: 0}
    - target: {fileID: 3969742109650495577, guid: 7ce2ea46080d3a94780ec6839ed52554, type: 3}
      propertyPath: m_LocalPosition.z
      value: 438.3
      objectReference: {fileID: 0}
    - target: {fileID: 3969742109650495577, guid: 7ce2ea46080d3a94780ec6839ed52554, type: 3}
      propertyPath: m_LocalRotation.w
      value: 1
      objectReference: {fileID: 0}
    - target: {fileID: 3969742109650495577, guid: 7ce2ea46080d3a94780ec6839ed52554, type: 3}
      propertyPath: m_LocalRotation.x
      value: 0
      objectReference: {fileID: 0}
    - target: {fileID: 3969742109650495577, guid: 7ce2ea46080d3a94780ec6839ed52554, type: 3}
      propertyPath: m_LocalRotation.y
      value: 0
      objectReference: {fileID: 0}
    - target: {fileID: 3969742109650495577, guid: 7ce2ea46080d3a94780ec6839ed52554, type: 3}
      propertyPath: m_LocalRotation.z
      value: 0
      objectReference: {fileID: 0}
    - target: {fileID: 3969742109650495577, guid: 7ce2ea46080d3a94780ec6839ed52554, type: 3}
      propertyPath: m_LocalEulerAnglesHint.x
      value: 0
      objectReference: {fileID: 0}
    - target: {fileID: 3969742109650495577, guid: 7ce2ea46080d3a94780ec6839ed52554, type: 3}
      propertyPath: m_LocalEulerAnglesHint.y
      value: 0
      objectReference: {fileID: 0}
    - target: {fileID: 3969742109650495577, guid: 7ce2ea46080d3a94780ec6839ed52554, type: 3}
      propertyPath: m_LocalEulerAnglesHint.z
      value: 0
      objectReference: {fileID: 0}
    - target: {fileID: 4565489773694363943, guid: 7ce2ea46080d3a94780ec6839ed52554, type: 3}
      propertyPath: m_Name
      value: AquaBigboy
      objectReference: {fileID: 0}
    - target: {fileID: 7430118733490485834, guid: 7ce2ea46080d3a94780ec6839ed52554, type: 3}
      propertyPath: model
      value: 
      objectReference: {fileID: 919132149155446097, guid: 4549e5359bf125140a84e7265aa44db9, type: 3}
    - target: {fileID: 7430118733490485834, guid: 7ce2ea46080d3a94780ec6839ed52554, type: 3}
      propertyPath: killPoints
      value: 15
      objectReference: {fileID: 0}
    - target: {fileID: 7430118733490485834, guid: 7ce2ea46080d3a94780ec6839ed52554, type: 3}
      propertyPath: startDelay
      value: 120
      objectReference: {fileID: 0}
    - target: {fileID: 7430118733490485834, guid: 7ce2ea46080d3a94780ec6839ed52554, type: 3}
      propertyPath: invaderPrefab
      value: 
      objectReference: {fileID: 1443808072648727875, guid: ebfbff028499bd84694463ac26ac9c2e, type: 3}
    - target: {fileID: 7430118733490485834, guid: 7ce2ea46080d3a94780ec6839ed52554, type: 3}
      propertyPath: spawnInterval
      value: 10
      objectReference: {fileID: 0}
    - target: {fileID: 7430118733490485834, guid: 7ce2ea46080d3a94780ec6839ed52554, type: 3}
      propertyPath: smallboyPrefab
      value: 
      objectReference: {fileID: 3290537482987725160, guid: 16fa316406acd90408e5ef665622c51f, type: 3}
    m_RemovedComponents: []
  m_SourcePrefab: {fileID: 100100000, guid: 7ce2ea46080d3a94780ec6839ed52554, type: 3}
